<?xml version="1.0" encoding="UTF-8" standalone="no"?>
<!-- Created with Inkscape (http://www.inkscape.org/) -->

<svg
   xmlns:dc="http://purl.org/dc/elements/1.1/"
   xmlns:cc="http://creativecommons.org/ns#"
   xmlns:rdf="http://www.w3.org/1999/02/22-rdf-syntax-ns#"
   xmlns:svg="http://www.w3.org/2000/svg"
   xmlns="http://www.w3.org/2000/svg"
   xmlns:sodipodi="http://sodipodi.sourceforge.net/DTD/sodipodi-0.dtd"
   xmlns:inkscape="http://www.inkscape.org/namespaces/inkscape"
   id="svg2"
   sodipodi:version="0.32"
   inkscape:version="0.48.4 r9939"
   width="40"
   height="30"
   version="1.0"
   sodipodi:docname="Cquote3.svg">
  <metadata
     id="metadata7">
    <rdf:RDF>
      <cc:Work
         rdf:about="">
        <dc:format>image/svg+xml</dc:format>
        <dc:type
           rdf:resource="http://purl.org/dc/dcmitype/StillImage" />
      </cc:Work>
    </rdf:RDF>
  </metadata>
  <defs
     id="defs5" />
  <sodipodi:namedview
     inkscape:window-height="721"
     inkscape:window-width="1024"
     inkscape:pageshadow="2"
     inkscape:pageopacity="0.0"
     guidetolerance="10.0"
     gridtolerance="10.0"
     objecttolerance="10.0"
     borderopacity="1.0"
     bordercolor="#666666"
     pagecolor="#ffffff"
     id="base"
     inkscape:zoom="6.2833333"
     inkscape:cx="45.841389"
     inkscape:cy="15.697489"
     inkscape:window-x="-4"
     inkscape:window-y="-4"
     inkscape:current-layer="svg2"
     showgrid="false"
     inkscape:window-maximized="1" />
  <path
     style="fill:#b2b7f2;fill-opacity:1"
     d="m 5.1231493,4.429075 c -5.09488896,5.718554 -1.585263,15.67318 2.656368,19.521337 3.6149267,3.279587 9.6049687,5.961044 10.1696657,5.024119 0.897726,-1.489476 -2.635658,-2.546909 -5.292197,-4.937535 -3.3162847,-3.586237 -4.4298687,-5.198365 0.158833,-7.221458 4.918582,-2.219791 5.013045,-4.39101 5.171088,-7.153172 C 18.384785,2.708511 10.096877,-0.54465195 5.1231493,4.429075 z"
     id="path1873"
     sodipodi:nodetypes="cssccsc"
     inkscape:connector-curvature="0" />
  <path
     style="fill:#b2b7f2;fill-opacity:1"
     d="m 24.295393,4.528274 c -5.094889,5.718554 -1.585263,15.67318 2.656368,19.521336 3.614928,3.279588 9.60497,5.961044 10.169667,5.024119 0.897726,-1.489476 -2.635658,-2.546908 -5.292197,-4.937534 -3.316286,-3.586237 -4.42987,-5.198365 0.158833,-7.221458 4.918582,-2.219791 5.013045,-4.39101 5.171088,-7.153172 C 37.55703,2.80771 29.269122,-0.44545295 24.295393,4.528274 z"
     id="path1875"
     sodipodi:nodetypes="cssccsc"
     inkscape:connector-curvature="0" />
</svg>
